<?xml version="1.0" encoding="utf-8"?>
<!-- Generator: Adobe Illustrator 23.0.0, SVG Export Plug-In . SVG Version: 6.00 Build 0)  -->
<svg version="1.1" id="Capa_1" xmlns="http://www.w3.org/2000/svg" xmlns:xlink="http://www.w3.org/1999/xlink" x="0px" y="0px"
	 viewBox="0 0 65 28" style="enable-background:new 0 0 65 28;" xml:space="preserve">
<style type="text/css">
	.st0{fill:#2385AF;stroke:#FFFFFF;stroke-width:0.3;stroke-miterlimit:10;}
</style>
<polygon class="st0" points="18.37,10.64 19.79,13.17 12.21,26.29 1.14,26.29 15.68,1.16 30.54,26.92 27.7,26.92 15.68,5.9 
	5.25,23.76 10.78,23.76 "/>
<polygon class="st0" points="51.25,11.43 52.67,13.96 44.88,26.75 33.82,26.75 48.36,1.61 63.22,27.38 60.37,27.38 48.36,6.36 
	37.93,24.22 43.46,24.22 "/>
<polygon class="st0" points="29.28,17.28 27.85,14.75 35.44,1.63 46.51,1.63 31.96,26.77 17.11,1 19.95,1 31.96,22.02 42.4,4.16 
	36.87,4.16 "/>
</svg>
